Chapter 3 Data frames | LÆK101F: General statistics, course for M.Sc. and Ph.D students
…
Note that the entire data set is printed. This is annoying and should be avoided. Functions like as_tibble() included in the tibble library converts the data frame to a tibble, a much nicer data type to work with (in my opinion). We begin by installing and loading the tibble library:

# Install tibble package
install.packages('tibble')
# Load tibble package
library(tibble)

And then we use the mtcars data frame as an input in the as_tibble() function.

as_tibble(mtcars)
#> # A tibble: 32 × 11
#>      mpg   cyl  disp    hp  drat    wt  qsec    vs    am
#>    <dbl> <dbl> <dbl> <dbl> <dbl> <dbl> <dbl> <dbl> <dbl>
#>  1  21       6  160    110  3.9   2.62  16.5     0     1
#>  2  21       6  160    110  3.9   2.88  17.0     0     1
#>  3  22.8     4  108     93  3.85  2.32  18.6     1     1
#>  4  21.4     6  258    110  3.08  3.22  19.4     1     0
#>  5  18.7     8  360    175  3.15  3.44  17.0     0     0
#>  6  18.1     6  225    105  2.76  3.46  20.2     1     0
#>  7  14.3     8  360    245  3.21  3.57  15.8     0     0
#>  8  24.4     4  147.    62  3.69  3.19  20       1     0
#>  9  22.8     4  141.    95  3.92  3.15  22.9     1     0
#> 10  19.2     6  168.   123  3.92  3.44  18.3     1     0
#> # … with 22 more rows, and 2 more variables: gear <dbl>,
#> #   carb <dbl>
…
3.2 Subsetting our data

Let us assume we are interested in a specific subset of the mtcars data. We can create a subset of mtcars with the columns we are interested in using with the select() function from the dplyr package. As with the tibble package, we have install and then load the dplyr package, something I hope you have grown comfortable with at this point:

# Install dplyr
install.packages('dplyr')
# Load dplyr package
library(dplyr)

We will now create a subset tibble of the mtcars data which will consist of all the rows but only variables mpg, hp, and wt, representing miles per gallon, gross horsepower, and weight (1000 lbs) respectively.

smallData <- select(mtcars, mpg, hp, wt)
smallData
#> # A tibble: 32 × 3
#>      mpg    hp    wt
#>    <dbl> <dbl> <dbl>
#>  1  21     110  2.62
#>  2  21     110  2.88
#>  3  22.8    93  2.32
#>  4  21.4   110  3.22
#>  5  18.7   175  3.44
#>  6  18.1   105  3.46
#>  7  14.3   245  3.57
#>  8  24.4    62  3.19
#>  9  22.8    95  3.15
#> 10  19.2   123  3.44
#> # … with 22 more rows
…
