Chapter 9 Lecture 8: Multiple regression | LÆK101F: General statistics, course for M.Sc. and Ph.D students
…
Look at the output. The coefficient for x is still the slope but now we have two intercept. We have the actual reported intercept term (Intercept) for the baseline level g and then we have part of the intercept term for the Romanesque style. To get the actual intercept term for level r we need to add the two terms together.

sum(coefficients(ancovM2)[c(1, 3)])
#> [1] 124.6905

A very useful function is the fortify() function from the ggplot2 package which is included with the tidyverse package.

fortM2 <- fortify(ancovM2)
fortM2 %>% 
    as_tibble()
#> # A tibble: 25 × 9
#>        y     x style  .hat .sigma  .cooksd .fitted  .resid
#>    <dbl> <dbl> <fct> <dbl>  <dbl>    <dbl>   <dbl>   <dbl>
#>  1   502    75 r     0.111   79.2 0.00447     478.   23.9 
#>  2   522    80 r     0.117   79.2 0.00345     502.   20.4 
#>  3   425    68 r     0.119   79.2 0.00342     445.  -20.1 
#>  4   344    64 r     0.131   77.0 0.0653      426.  -82.2 
#>  5   407    83 r     0.125   75.2 0.107       516. -109.  
#>  6   451    80 r     0.117   78.5 0.0213      502.  -50.6 
#>  7   551    70 r     0.115   76.1 0.0757      455.   96.5 
#>  8   530    76 r     0.112   78.6 0.0175      483.   47.2 
#>  9   547    74 r     0.111   77.5 0.0423      473.   73.6 
#> 10   519   100 g     0.180   79.3 0.000185    515.    3.54
#> # … with 15 more rows, and 1 more variable: .stdresid <dbl>
…
