Chapter 3 Lecture 2: Data wrangling | LÆK101F: General statistics, course for M.Sc. and Ph.D students
…
dummyXLSX
#> # A tibble: 10,000 × 4
#>       id type    age metric1
#>    <dbl> <chr> <dbl>   <dbl>
#>  1     1 a        32    31.4
#>  2     2 c        33    42.4
#>  3     3 a        41    40.4
#>  4     4 b        37    75.7
#>  5     5 a        35    66.9
#>  6     6 c        37    64.8
#>  7     7 c        40    52.0
#>  8     8 b        34    35.7
#>  9     9 b        36    30.2
#> 10    10 c        36    34.5
#> # … with 9,990 more rows
…
3.4 Filter

Now, say that I want to restrict my analysis to participants who scored over 50 on the “test” for dummyXLSX (variable metric1). A very useful tool is the filter() function from dplyr which allows us to subset our data based on logic operations.

dummyXLSX %>%
    filter(metric1 > 50)
#> # A tibble: 4,978 × 5
#>       id type    age metric1 factorType   
#>    <dbl> <chr> <dbl>   <dbl> <fct>        
#>  1     4 b        37    75.7 Heart disease
#>  2     5 a        35    66.9 Diabetes     
#>  3     6 c        37    64.8 Control      
#>  4     7 c        40    52.0 Control      
#>  5    13 a        33    62.7 Diabetes     
#>  6    15 b        37    60.4 Heart disease
#>  7    17 b        38    75.3 Heart disease
#>  8    19 c        38    61.5 Control      
#>  9    20 a        32    76.1 Diabetes     
#> 10    21 c        32    61.0 Control      
#> # … with 4,968 more rows

Note how over half of our observations are gone. We can filter our data even further, for example by restricting our analysis to participants with Diabetes and Heart disease who scored higher than 50 on metric1.

dummyXLSX %>%
    filter(metric1 > 50, type %in% c('a', 'b'))
#> # A tibble: 3,328 × 5
#>       id type    age metric1 factorType   
#>    <dbl> <chr> <dbl>   <dbl> <fct>        
#>  1     4 b        37    75.7 Heart disease
#>  2     5 a        35    66.9 Diabetes     
#>  3    13 a        33    62.7 Diabetes     
#>  4    15 b        37    60.4 Heart disease
#>  5    17 b        38    75.3 Heart disease
#>  6    20 a        32    76.1 Diabetes     
#>  7    23 a        31    54.4 Diabetes     
#>  8    25 a        34    51.7 Diabetes     
#>  9    26 b        29    57.0 Heart disease
#> 10    30 b        32    54.7 Heart disease
#> # … with 3,318 more rows
…
>: Used for \(x > y\) which is read as x is greater than y.

<: Used for \(x < y\) which is read as x is lesser than y.

>=: Used for \(x \geq y\) which is read as x is greater OR equal to y

<=: Used for \(x \leq y\) which is read as x is lesser OR equal to y.

==: Used for \(x = y\) which is read as x is the same as y. The double == is not a mistake.

Here is a small example of ==:

dummyXLSX %>%
    filter(factorType == 'Diabetes')
#> # A tibble: 3,424 × 5
#>       id type    age metric1 factorType
#>    <dbl> <chr> <dbl>   <dbl> <fct>     
#>  1     1 a        32    31.4 Diabetes  
#>  2     3 a        41    40.4 Diabetes  
#>  3     5 a        35    66.9 Diabetes  
#>  4    12 a        30    34.8 Diabetes  
#>  5    13 a        33    62.7 Diabetes  
#>  6    14 a        35    49.6 Diabetes  
#>  7    20 a        32    76.1 Diabetes  
#>  8    22 a        36    49.0 Diabetes  
#>  9    23 a        31    54.4 Diabetes  
#> 10    24 a        35    33.2 Diabetes  
#> # … with 3,414 more rows

3.5 ifelse and case_when

Assume we want to create a new variable such that participants who scored higher than 50 on metric1 are labeled as high and those who scored lower or equal to 50 are labeled as low. We can use the ifelse() function to this end. First and example and then a dissection.

dummyXLSX <-
    dummyXLSX %>%
    mutate(scoreCat = ifelse(metric1 > 50, 'High', 'Low'))

dummyXLSX
#> # A tibble: 10,000 × 6
#>       id type    age metric1 factorType    scoreCat
#>    <dbl> <chr> <dbl>   <dbl> <fct>         <chr>   
#>  1     1 a        32    31.4 Diabetes      Low     
#>  2     2 c        33    42.4 Control       Low     
#>  3     3 a        41    40.4 Diabetes      Low     
#>  4     4 b        37    75.7 Heart disease High    
#>  5     5 a        35    66.9 Diabetes      High    
#>  6     6 c        37    64.8 Control       High    
#>  7     7 c        40    52.0 Control       High    
#>  8     8 b        34    35.7 Heart disease Low     
#>  9     9 b        36    30.2 Heart disease Low     
#> 10    10 c        36    34.5 Control       Low     
#> # … with 9,990 more rows

So how does ifelse() work? The function takes in three inputs: a test we want to perform (is the metric1 score higher than 50?), an action if the test is true (High), and an action if the test is false (metric1 \(\leq\) 50; Low). We can create complicated tests with the & and | operators which symbolize AND and OR respectively.

dummyXLSX <-
    dummyXLSX %>%
    mutate(scoreCatAge = ifelse(metric1 > 50 & age > 30, 'Both true', 'One or both false'))

dummyXLSX %>%
    select(age, metric1, scoreCatAge)
#> # A tibble: 10,000 × 3
#>      age metric1 scoreCatAge      
#>    <dbl>   <dbl> <chr>            
#>  1    32    31.4 One or both false
#>  2    33    42.4 One or both false
#>  3    41    40.4 One or both false
#>  4    37    75.7 Both true        
#>  5    35    66.9 Both true        
#>  6    37    64.8 Both true        
#>  7    40    52.0 Both true        
#>  8    34    35.7 One or both false
#>  9    36    30.2 One or both false
#> 10    36    34.5 One or both false
#> # … with 9,990 more rows

dummyXLSX %>%
    mutate(orStatement = ifelse(metric1 > 50 | age < 30, 'One or both true', 'Both false')) %>%
    select(age, metric1, orStatement)
#> # A tibble: 10,000 × 3
#>      age metric1 orStatement     
#>    <dbl>   <dbl> <chr>           
#>  1    32    31.4 Both false      
#>  2    33    42.4 Both false      
#>  3    41    40.4 Both false      
#>  4    37    75.7 One or both true
#>  5    35    66.9 One or both true
#>  6    37    64.8 One or both true
#>  7    40    52.0 One or both true
#>  8    34    35.7 Both false      
#>  9    36    30.2 Both false      
#> 10    36    34.5 Both false      
#> # … with 9,990 more rows

Assume we want to create a variable which combines multiple scenarios. It is possible to nest ifelse() within itself() but this quickly becomes obnoxious and confusing. This is where case_when() comes in as it allows us to strictly define what value our new variable takes based on the scenario. Here is one:

dummyXLSX %>%
    mutate(scenarios = case_when(age > 35 & metric1 < 50 & type == 'c' ~ 'Control, > 35, < 50',
                                 age > 35 & metric1 > 50 & type == 'b' ~ 'Heart, > 35, > 50',
                                 age <= 35 & metric1 <= 50 & type == 'a' ~ 'Diabetes, <= 35, <= 50',
                                 TRUE ~ 'Whatever does not fit')) %>% 
    select(age, metric1, type, scenarios)
#> # A tibble: 10,000 × 4
#>      age metric1 type  scenarios             
#>    <dbl>   <dbl> <chr> <chr>                 
#>  1    32    31.4 a     Diabetes, <= 35, <= 50
#>  2    33    42.4 c     Whatever does not fit 
#>  3    41    40.4 a     Whatever does not fit 
#>  4    37    75.7 b     Heart, > 35, > 50     
#>  5    35    66.9 a     Whatever does not fit 
#>  6    37    64.8 c     Whatever does not fit 
#>  7    40    52.0 c     Whatever does not fit 
#>  8    34    35.7 b     Whatever does not fit 
#>  9    36    30.2 b     Whatever does not fit 
#> 10    36    34.5 c     Control, > 35, < 50   
#> # … with 9,990 more rows
…
