Chapter 4 Lecture 3: Plots and table1 | LÆK101F: General statistics, course for M.Sc. and Ph.D students
…
4 Lecture 3: Plots and table1

library(tidyverse)  # General data wrangling & plots
library(knitr)      # Tables 
library(kableExtra) # Fancy tables
library(cowplot)    # For pretty plots
library(table1)     # Table1
library(here)       # paths

We begin by loading in our data:

pulse <- read_csv2("https://notendur.hi.is/thj73/data/pulseEn.csv")
pulse
#> # A tibble: 471 × 10
#>       id height weight   age   sex smokes drinks firstPulse
#>    <dbl>  <dbl>  <dbl> <dbl> <dbl> <chr>  <chr>       <dbl>
#>  1     1    161     60    23     1 no     no             83
#>  2     2    185    115    52     2 <NA>   yes            80
#>  3     3    167     NA    22     1 no     yes            43
#>  4     4    174     67    21     1 no     yes            76
#>  5     5    163     57    20     1 no     yes            71
#>  6     6    175     59    20     1 no     yes            65
#>  7     7    178     70    39     1 <NA>   yes            77
#>  8     8    191     94    21     2 no     yes            79
#>  9     9    176     68    20     1 no     yes            73
#> 10    10    176     82    70     2 no     yes            65
#> # … with 461 more rows, and 2 more variables:
#> #   secondPulse <dbl>, intervention <chr>
…
