Chapter 2 Lecture 1 | LÆK101F: General statistics, course for M.Sc. and Ph.D students
…
Note that the entire data set is printed. This is annoying and should be avoided. Functions like as_tibble() included in the tibble library converts the data frame to a tibble, a much nicer data type to work with (in my opinion). We begin by installing and loading the tibble library:

# Install tibble package
install.packages('tibble')
# Load tibble package
library(tibble)

And then we use the mtcars data frame as an input in the as_tibble() function.

as_tibble(mtcars)
#> # A tibble: 32 × 11
#>      mpg   cyl  disp    hp  drat    wt  qsec    vs    am
#>    <dbl> <dbl> <dbl> <dbl> <dbl> <dbl> <dbl> <dbl> <dbl>
#>  1  21       6  160    110  3.9   2.62  16.5     0     1
#>  2  21       6  160    110  3.9   2.88  17.0     0     1
#>  3  22.8     4  108     93  3.85  2.32  18.6     1     1
#>  4  21.4     6  258    110  3.08  3.22  19.4     1     0
#>  5  18.7     8  360    175  3.15  3.44  17.0     0     0
#>  6  18.1     6  225    105  2.76  3.46  20.2     1     0
#>  7  14.3     8  360    245  3.21  3.57  15.8     0     0
#>  8  24.4     4  147.    62  3.69  3.19  20       1     0
#>  9  22.8     4  141.    95  3.92  3.15  22.9     1     0
#> 10  19.2     6  168.   123  3.92  3.44  18.3     1     0
#> # … with 22 more rows, and 2 more variables: gear <dbl>,
#> #   carb <dbl>
…
2.10 Subsetting our data

Let us assume we are interested in a specific subset of the mtcars data. We can create a subset of mtcars with the columns we are interested in using with the select() function from the dplyr package. As with the tibble package, we have install and then load the dplyr package, something I hope you have grown comfortable with at this point:

# Install dplyr
install.packages('dplyr')
# Load dplyr package
library(dplyr)

We will now create a subset tibble of the mtcars data which will consist of all the rows but only variables mpg, hp, and wt, representing miles per gallon, gross horsepower, and weight (1000 lbs) respectively.

smallData <- select(mtcars, mpg, hp, wt)
smallData
#> # A tibble: 32 × 3
#>      mpg    hp    wt
#>    <dbl> <dbl> <dbl>
#>  1  21     110  2.62
#>  2  21     110  2.88
#>  3  22.8    93  2.32
#>  4  21.4   110  3.22
#>  5  18.7   175  3.44
#>  6  18.1   105  3.46
#>  7  14.3   245  3.57
#>  8  24.4    62  3.19
#>  9  22.8    95  3.15
#> 10  19.2   123  3.44
#> # … with 22 more rows

Dissecting the select() function, we see that first we have to supply the function with the data set we want to subset (in this case mtcars) and then list our selected variables. We can also use the select() function to throw out variables with the - prefix.

throwOutVariables <- select(mtcars, -mpg, -hp, -wt)
throwOutVariables
#> # A tibble: 32 × 8
#>      cyl  disp  drat  qsec    vs    am  gear  carb
#>    <dbl> <dbl> <dbl> <dbl> <dbl> <dbl> <dbl> <dbl>
#>  1     6  160   3.9   16.5     0     1     4     4
#>  2     6  160   3.9   17.0     0     1     4     4
#>  3     4  108   3.85  18.6     1     1     4     1
#>  4     6  258   3.08  19.4     1     0     3     1
#>  5     8  360   3.15  17.0     0     0     3     2
#>  6     6  225   2.76  20.2     1     0     3     1
#>  7     8  360   3.21  15.8     0     0     3     4
#>  8     4  147.  3.69  20       1     0     4     2
#>  9     4  141.  3.92  22.9     1     0     4     2
#> 10     6  168.  3.92  18.3     1     0     4     4
#> # … with 22 more rows

2.11 Creating new variables

There are two ways of making new variables: the $ operator or the mutate() function from the dplyr package. Let’s create two new variables by randomly drawing numbers from the interval [0, 1].

smallData$var1 <- runif(n = nrow(smallData))
smallData <- mutate(smallData, var2 = runif(n = nrow(smallData)))
smallData
#> # A tibble: 32 × 5
#>      mpg    hp    wt   var1    var2
#>    <dbl> <dbl> <dbl>  <dbl>   <dbl>
#>  1  21     110  2.62 0.474  0.538  
#>  2  21     110  2.88 0.447  0.00519
#>  3  22.8    93  2.32 0.625  0.813  
#>  4  21.4   110  3.22 0.655  0.818  
#>  5  18.7   175  3.44 0.469  0.808  
#>  6  18.1   105  3.46 0.479  0.669  
#>  7  14.3   245  3.57 0.0277 0.470  
#>  8  24.4    62  3.19 0.996  0.440  
#>  9  22.8    95  3.15 0.718  0.183  
#> 10  19.2   123  3.44 0.0305 0.436  
#> # … with 22 more rows
…
